 {
    "english": [
        {
    
            "efirstlayer" : "Experience",
            "esubs" : [
                {
                    "esecondlayer": "Sunsuria Berhad",
                    "esecondsub" : [
                        {
                            "ename" : "Executive Chairman",
                            "edescription1":"Sunsuria is an award-winning public-listed property developer that has also diversified into construction, landscaping, and other complementary businesses or joint-ventures. The flagship project of Sunsuria City is a mixed-development built on the principles of ‘Smart, Livable, Sustainable’, which was awarded the ‘Best Sustainable Township 2016’ by industry publication Property Insight. In 2017, Sunsuria Berhad was recognised for the ‘Highest Returns to Shareholders over Three Years’ in the Billion Ringgit Club Awards by business newspaper The Edge."
                            
                        }

                        
                    ]

                },

                {
                    "esecondlayer" : "National Chamber Of Commerce And Industry Of Malaysia (NCCIM)",
                    "esecondsub" : [
                        {
                            
                            "ename": "President",
                            "epoint1" : "NCCIM was created by the Malaysian Cabinet in 1962 as the apex business organisation in the country, representing five national trade associations consisting of over 600,000 businesses and entrepreneurs, namely:",
                            "edescription1": "Associated Chinese Chambers of Commerce and Industry of Malaysia (ACCCIM)",
                            "edescription2": "Malay Chamber of Commerce Malaysia (DPMM)",
                            "edescription3": "Malaysian Associated Indian Chambers of Commerce and Industry (MAICCI)",
                            "edescription4": "Malaysian International Chamber of Commerce and Industry (MICCI)",
                            "edescription5": "Federation of Malaysian Manufacturers (FMM)",
                            "edate": "2016 – Present"
                        }
                    ]
                },
                {
                    "esecondlayer" : "The Associated Chinese Chambers Of Commerce And Industry Of Malaysia (ACCCIM)",
                    "esecondsub" : [
                        {
                            
                            "ename": "President",
                            "edescription1": "Established in 1921, ACCCIM is one of the oldest and largest business organisations in Malaysia, representing 17 constituent chambers of commerce and over 100,000 members. ACCCIM works closely with both public and private sectors particularly on developing national economic policies. ACCCIM has signed over 60 Memoranda of Understanding or Economic Cooperation Agreements with chambers of commerce or trade organisations overseas.",
                            "edate" : "2015 – Present"
                        }
                    ]
                },
                {
                    "esecondlayer" : "Chinese Chamber Of Commerce & Industry Of Kuala Lumpur & Selangor (KLSCCCI)",
                    "esecondsub" : [
                        {
                            
                            "ename": "President",           
                            "edescription1": "Founded in 1904, KLSCCCI is the foremost institution representing the Chinese business community in Kuala Lumpur and Selangor, including 77 trade associations and over 1,900 companies.",
                            "edate" : "2012 - Present"
                        }
                    ]
                }
            ]

            
        
    
        },
        {
            "efirstlayer": "Affiliations",
            "esubs":[
                {
                    "esecondlayer" : "Other Affiliations",
                    "esecondsub" : [
                        {
                            
                            "edescription1": "President of Klang Chinese Chamber of Commerce and Industry (KCCCI) (2002 – 2009)",
                            "edescription2" : "Director of Xiamen University Malaysia (2012-Present)",
                            "edescription3" : "Director of Bank of China (M) Bhd (2010 – 2017)",
                            "edescription4" : "Member of World Chinese Entrepreneurs Convention (WCEC) Advisory Committee (2015-Present)",
                            "edescription5" : "Executive Member for China Overseas Friendship Association (COFA) (2019-Present)",
                            "edescription6" : "Member for Trade and Industry Advisory Council (TIAC) (2019-Present)",
                            "edescription7" : "Advisor of the Malaysia Retail Chain Association (MRCA) (2018-Present)",
                            "edescription8" : "Vice-Chairman of Hin Hua High School",
                            "edescription9" : "Vice-Chairman of Pin Hwa High School",
                            "edescription10" : "Director of Kuen Cheng High School",
                            "edescription11" : "Honorary Director of Buddhist Compassion Relief Tzu Chi Foundation"
                        }
                    ]

                }
               

            ]
        },
        {
            "efirstlayer" : "Awards",
            "esubs": [
                {
                    "esecondlayer": "All Awards",
                    "esecondsub"  : [
                        {
                            "edescription1" : "Panglima Setia Mahkota (PSM), 2017",
                            "edescription2" : "Panglima Jasa Negara (PJN), 2011",
                            "edescription3" : "Ahli Mangku Negara (AMN), 2001",
                            "edescription4" : "National Unity Ambassador – Department of National Unity and Integration (JPNIN), 2016",
                            "edescription5" : "The Edge Malaysia Outstanding Property Entrepreneur Award, 2017",
                            "edescription6": "Business Excellence Person of the Year – Sin Chew Business Excellence Awards, 2014",
                            "edescription7": "Outstanding Malaysian Hokkien Award – Federation of Hokkien Associations of Malaysia, 2008 and 2017"

                        }
                    ]
                
                
                }
            ]
        },
        {
            "efirstlayer" : "Education",
            "esubs": [
                {
                    "esecondlayer" : "University of Malaya",
                    "esecondsub": [
                            {
                                "edescription1": "Bachelor of Mechanical Engineering (Honours)"
                            }
                    ]
                }
            ]
        }
    ],

    "chinese": [
        {
    
            "cfirstlayer" : "工作经验",
            "csubs" : [
                {
                    "csecondlayer": "征阳集团",
                    "csecondsub" : [
                        {
                            "cname" : "执行主席",
                            "cdescription1":"征阳集团是获奖无数的上市地产发展公司，其业务现已涵盖建筑、环境美化工程，以及其他辅助业务或合资项目。 该集团的旗舰项目「征阳城」是标榜智慧、宜居、永续的综合发展项目，曾获行业刊物《Property Insight》授予「2016年最佳永续发展城区」称誉。 2017年，征阳集团荣膺财经周刊《The Edge》「十亿令吉俱乐部大奖」「三年內股东回报最佳表现」企业。 "
                            
                        }

                        
                    ]

                },

                {
                    "csecondlayer" : "马来西亚全国总商会 (2016年至今)",
                    "csecondsub" : [
                        {
                            
                            "cname": "总会长",
                            
                            "cdescription1": "马来西亚全国总商会于1962年由马来西亚内阁议决成立，是马来西亚私人工商界最高领导机构。 该会的五个属会，即马来西亚中华总商会（中总）、马来西亚马来人总商会、马来西亚印度人总商会、马来西亚国际总商会和马来西亚厂商公会，均历史悠久并具代表性，代表着马来西亚三大民族、厂商和外资，目前会员人数逾60万名，备受大马政府重视。 ",
                            
                            "cdate": "2016 – Present"
                        }
                    ]
                },
                {
                    "csecondlayer" : "马来西亚中华总商会（中总）(2015年至今)",
                    "csecondsub" : [
                        {
                            
                            "cname": "总会长",
                            "cdescription1": "中总成立于1921年7月2日，是马来西亚国内华裔商会的联合总机构，其17个属会，分布在马来西亚13个州，会员和间接会员总数逾10万名，代表马来西亚华人公司、商家及各行业团体 中总的合作网络广泛，目前中总和世界各地的商会和经济团体签署了共76份谅解备忘录或合作协议。",
                            "cdate" : "2015 – Present"
                        }
                    ]
                },
                {
                    "csecondlayer" : "吉隆坡暨雪兰莪中华总商会（隆雪中总）(2012年至今)",
                    "csecondsub" : [
                        {
                            
                            "cname": "会长",           
                            "cdescription1": "隆雪中总创立于1904年，是吉隆坡暨雪兰莪两地华商的最高领导机构，代表81个行业团体和超过 2,012 家商号。",
                            "cdate": "2012 - Present"
                            
                        }
                    ]
                }
            ]

            
        
    
        },
        {
            "cfirstlayer": "团体要职",
            "csubs":[
                {
                    "csecondlayer" : "其他团体要职",
                    "csecondsub" : [
                        {
                            
                            "cdescription1": "巴生中华总商会会长 (KCCCI) (2002 – 2009)",
                            "cdescription2" : "厦门大学马来西亚分校董事 (2012-Present)",
                            "cdescription3" : "马来西亚中国银行董事 (2010 – 2017)",
                            "cdescription4" : "世界华商大会顾问委员会成员 (2015-Present)",
                            "cdescription5" : "中华海外联谊会常务理事 (2019-Present)",
                            "cdescription6" : "马来西亚贸易与投资顾问理事会理事 (2019-Present)",
                            "cdescription7" : "马来西亚连锁协会顾问 (2018-Present)",
                            "cdescription8" : "兴华中学副董事长",
                            "cdescription9" : "滨华中学副董事长",
                            "cdescription10" : "坤成中学董事",
                            "cdescription11" : "佛教慈济基金会名誉董事"
                        }
                    ]

                }
               

            ]
        },
        {
            "cfirstlayer" : "荣誉",
            "csubs": [
                {
                    "csecondlayer": "荣誉",
                    "csecondsub"  : [
                        {
                            "cdescription1" : "效忠领袖勋章, 2017",
                            "cdescription2" : "国家领袖勋章, 2011",
                            "cdescription3" : "护国有功勋章, 2001",
                            "cdescription4" : "马来西亚首相署国民团结及融合局委任为“国民团结大使”, 2016",
                            "cdescription5" : "《The Edge》“马来西亚杰出房地产企业家奖”, 2017",
                            "cdescription6": "星洲企业楷模奖之“卓越楷模年度人物”, 2014",
                            "cdescription7": "马来西亚福建社团联合会“马来西亚福联会50福建杰出人物奖”, 2008 and 2017"

                        }
                    ]
                
                
                }
            ]
        },
        {
            "cfirstlayer" : "学历",
            "csubs": [
                {
                    "csecondlayer" : "马来亚大学",
                    "csecondsub": [
                            {
                                "cdescription1": "机械工程（荣誉）学士"
                            }
                    ]
                }
            ]
        }
    ]

 }
    
    
